第10章 贝叶斯统计 | 数据分析残卷
…
# 把ID换成球员名字
career <- Master %>%
  tbl_df() %>%
  dplyr::select(playerID, nameFirst, nameLast) %>%
  unite(name, nameFirst, nameLast, sep = " ") %>%
  inner_join(career, by = "playerID") %>%
  dplyr::select(-playerID)
# 展示数据
career

## # A tibble: 9,741 x 4
##    name                  H    AB average
##    <chr>             <int> <int>   <dbl>
##  1 Hank Aaron         3771 12364  0.305 
##  2 Tommie Aaron        216   944  0.229 
##  3 Andy Abad             2    21  0.0952
##  4 John Abadie          11    49  0.224 
##  5 Ed Abbaticchio      772  3044  0.254 
##  6 Fred Abbott         107   513  0.209 
##  7 Jeff Abbott         157   596  0.263 
##  8 Kurt Abbott         523  2044  0.256 
##  9 Ody Abbott           13    70  0.186 
## 10 Frank Abercrombie     0     4  0     
## # … with 9,731 more rows
…
如果我打算交易一个球员，那么如何筛选候选人？

先选那些击球率更好的球员

# 对比打算交易的球员与其他球员
career_eb_vs_piazza <- bind_cols(
  career_eb,
  credible_interval_approx(piazza$alpha1, piazza$beta1,
                           career_eb$alpha1, career_eb$beta1)) %>%
  dplyr::select(name, posterior, conf.low, conf.high)

career_eb_vs_piazza

## # A tibble: 9,741 x 4
##    name                 posterior conf.low conf.high
##    <chr>                    <dbl>    <dbl>     <dbl>
##  1 Rogers Hornsby        2.84e-11   0.0345    0.0639
##  2 Ed Delahanty          7.51e- 7   0.0218    0.0517
##  3 Shoeless Joe Jackson  8.87e- 8   0.0278    0.0611
##  4 Willie Keeler         4.61e- 6   0.0183    0.0472
##  5 Nap Lajoie            1.55e- 5   0.0159    0.0441
##  6 Tony Gwynn            1.83e- 5   0.0157    0.0442
##  7 Harry Heilmann        7.19e- 6   0.0180    0.0476
##  8 Lou Gehrig            1.43e- 5   0.0167    0.0461
##  9 Billy Hamilton        6.46e- 6   0.0191    0.0504
## 10 Eddie Collins         1.99e- 4   0.0113    0.0393
## # … with 9,731 more rows

# 计算q值
career_eb_vs_piazza <- career_eb_vs_piazza %>%
  arrange(posterior) %>%
  mutate(qvalue = cummean(posterior))

# 筛选那些q值小于0.05的
better <- career_eb_vs_piazza %>%
  filter(qvalue < .05)

better

## # A tibble: 49 x 5
##    name                posterior conf.low conf.high   qvalue
##    <chr>                   <dbl>    <dbl>     <dbl>    <dbl>
##  1 Rogers Hornsby       2.84e-11   0.0345    0.0639 2.84e-11
##  2 Shoeless Joe Jacks…  8.87e- 8   0.0278    0.0611 2.84e-11
##  3 Ed Delahanty         7.51e- 7   0.0218    0.0517 2.96e- 8
##  4 Willie Keeler        4.61e- 6   0.0183    0.0472 2.10e- 7
##  5 Billy Hamilton       6.46e- 6   0.0191    0.0504 1.09e- 6
##  6 Harry Heilmann       7.19e- 6   0.0180    0.0476 1.99e- 6
##  7 Lou Gehrig           1.43e- 5   0.0167    0.0461 2.73e- 6
##  8 Nap Lajoie           1.55e- 5   0.0159    0.0441 4.18e- 6
##  9 Tony Gwynn           1.83e- 5   0.0157    0.0442 5.44e- 6
## 10 Bill Terry           3.04e- 5   0.0162    0.0472 6.72e- 6
## # … with 39 more rows
…
算法优化的期望是将这两个分布分拆开，前面一次分拆已经产生微弱差异，下面就通过贝叶斯思想对数据更新这个差异重新分组让两者分开

assignments <- starting_data %>%
  dplyr::select(-cluster) %>%
  tidyr::crossing(fits) %>%
  mutate(likelihood = prior * VGAM::dbetabinom.ab(H, AB, alpha, beta)) %>%
  group_by(playerID) %>%
  top_n(1, likelihood) %>%
  ungroup()
# 去除掉原有分组，根据更新的后验概率重新分组
assignments

## # A tibble: 3,711 x 11
##    playerID name      H    AB average cluster alpha  beta
##    <chr>    <chr> <int> <int>   <dbl> <fct>   <dbl> <dbl>
##  1 abbotje… Jeff…    11    42  0.262  B        13.0  46.5
##  2 abbotji… Jim …     2    21  0.0952 B        13.0  46.5
##  3 abbotku… Kurt…   475  1860  0.255  B        13.0  46.5
##  4 abbotky… Kyle…     3    31  0.0968 B        13.0  46.5
##  5 abercre… Regg…    86   386  0.223  B        13.0  46.5
##  6 abnersh… Shaw…   110   531  0.207  B        13.0  46.5
##  7 abreubo… Bobb…  1607  5395  0.298  B        13.0  46.5
##  8 abreuto… Tony…   129   509  0.253  B        13.0  46.5
##  9 acevejo… Jose…     8   101  0.0792 A        11.7  42.2
## 10 aceveju… Juan…     6    65  0.0923 A        11.7  42.2
## # … with 3,701 more rows, and 3 more variables:
## #   number <int>, prior <dbl>, likelihood <dbl>
…
# 构建仿真数据
set.seed(2017)

career_sim <- career %>%
  mutate(p = rbeta(n(), alpha0, beta0),
         H = rbinom(n(), AB, p))

career_sim

## # A tibble: 10,893 x 4
##    playerID      H    AB     p
##    <chr>     <int> <int> <dbl>
##  1 aaronha01  3672 12364 0.298
##  2 aaronto01   255   944 0.249
##  3 abadan01      7    21 0.273
##  4 abadijo01    11    49 0.198
##  5 abbated01   756  3044 0.249
##  6 abbeych01   471  1756 0.264
##  7 abbotda01     1     7 0.191
##  8 abbotfr01   124   513 0.251
##  9 abbotje01   141   596 0.243
## 10 abbotku01   504  2044 0.261
## # … with 10,883 more rows
…
